…
#> 1 Recovered        7   0.175
#> 2 Improved        18   0.45 
#> 3 Unchanged       15   0.375
#> 4 Deteriorated     0   0    
#> 5 Harmed           0   0    
#> 
#> $group_level_summary
#> # A tibble: 2 × 2
#>   category   percent
#>   <chr>        <dbl>
#> 1 Changed      0.841
#> 2 Functional   0.354
#> 
#> $categories
#> # A tibble: 40 × 12
#>       id   pre  post change cs_indiv clinical_post    rci recovered improved
#>    <dbl> <dbl> <dbl>  <dbl>    <dbl> <lgl>          <dbl> <lgl>     <lgl>   
#>  1     1    33    27     -6    1.72  FALSE         -1.50  FALSE     FALSE   
#>  2     2    26    19     -7   -0.393 FALSE         -1.67  FALSE     TRUE    
#>  3     3    15     5    -10   -4.08  FALSE         -2.18  FALSE     TRUE    
#>  4     5    39    46      7    6.73  FALSE          0.732 FALSE     FALSE   
#>  5     6    22    28      6    1.98  FALSE          0.561 FALSE     FALSE   
#>  6     7    25    18     -7   -0.657 FALSE         -1.67  FALSE     TRUE    
#>  7     8    33    30     -3    2.51  FALSE         -0.981 FALSE     FALSE   
#>  8     9    23     8    -15   -3.29  FALSE         -3.04  TRUE      FALSE   
#>  9    10    47    24    -23    0.925 FALSE         -4.41  FALSE     TRUE    
#> 10    11    43    13    -30   -1.97  FALSE         -5.61  TRUE      FALSE   
#> # ℹ 30 more rows
#> # ℹ 3 more variables: unchanged <lgl>, deteriorated <lgl>, harmed <lgl>
…
#> 1 Recovered        7   0.175
#> 2 Improved        18   0.45 
#> 3 Unchanged       15   0.375
#> 4 Deteriorated     0   0    
#> 5 Harmed           0   0    
#> 
#> $group_level_summary
#> # A tibble: 2 × 2
#>   category   percent
#>   <chr>        <dbl>
#> 1 Changed      0.841
#> 2 Functional   0.354
#> 
#> $categories
#> # A tibble: 40 × 12
#>       id   pre  post change cs_indiv clinical_post    rci recovered improved
#>    <dbl> <dbl> <dbl>  <dbl>    <dbl> <lgl>          <dbl> <lgl>     <lgl>   
#>  1     1    33    27     -6    1.72  FALSE         -1.50  FALSE     FALSE   
#>  2     2    26    19     -7   -0.393 FALSE         -1.67  FALSE     TRUE    
#>  3     3    15     5    -10   -4.08  FALSE         -2.18  FALSE     TRUE    
#>  4     5    39    46      7    6.73  FALSE          0.732 FALSE     FALSE   
#>  5     6    22    28      6    1.98  FALSE          0.561 FALSE     FALSE   
#>  6     7    25    18     -7   -0.657 FALSE         -1.67  FALSE     TRUE    
#>  7     8    33    30     -3    2.51  FALSE         -0.981 FALSE     FALSE   
#>  8     9    23     8    -15   -3.29  FALSE         -3.04  TRUE      FALSE   
#>  9    10    47    24    -23    0.925 FALSE         -4.41  FALSE     TRUE    
#> 10    11    43    13    -30   -1.97  FALSE         -5.61  TRUE      FALSE   
#> # ℹ 30 more rows
#> # ℹ 3 more variables: unchanged <lgl>, deteriorated <lgl>, harmed <lgl>
…
